<?xml version="1.0" encoding="utf-8"?>
<!-- Generator: Adobe Illustrator 16.0.0, SVG Export Plug-In . SVG Version: 6.00 Build 0)  -->
<!DOCTYPE svg PUBLIC "-//W3C//DTD SVG 1.1//EN" "http://www.w3.org/Graphics/SVG/1.1/DTD/svg11.dtd">
<svg version="1.1" id="Layer_1" xmlns="http://www.w3.org/2000/svg" xmlns:xlink="http://www.w3.org/1999/xlink" x="0px" y="0px"
	 width="128px" height="128px" viewBox="0 0 128 128" enable-background="new 0 0 128 128" xml:space="preserve">
<g>
	<g display="none">
		<g display="inline">
			<circle fill="#2AB5E9" cx="64" cy="64" r="63.668"/>
		</g>
	</g>
	<g>
		<path fill="#FFFFFF" d="M81.438,81.541c-5.127,5.122-11.811,7.667-18.524,7.671c-6.719-0.004-13.399-2.549-18.524-7.671
			c-5.122-5.125-7.667-11.802-7.671-18.524c0.004-6.715,2.549-13.398,7.671-18.521l0,0c5.125-5.122,11.805-7.671,18.524-7.671
			c6.719,0,13.397,2.549,18.524,7.671l5.627-5.627c-6.662-6.66-15.424-10.01-24.151-10.002c-8.728-0.008-17.491,3.342-24.151,10.002
			l0,0C32.1,45.53,28.754,54.293,28.758,63.017c-0.004,8.729,3.342,17.495,10.003,24.151c6.66,6.661,15.423,10.007,24.151,10.003
			c8.729,0.004,17.49-3.342,24.15-10.003L81.438,81.541z"/>
		<polyline fill="#FFFFFF" points="98.966,59.038 58.905,59.038 58.905,66.996 98.966,66.996 		"/>
		<polygon fill="#FFFFFF" points="93.721,76.501 107.2,63.017 93.721,49.536 88.093,55.163 95.945,63.017 88.093,70.874 		"/>
	</g>
</g>
</svg>
