<?xml version="1.0" encoding="utf-8"?>
<!-- Generator: Adobe Illustrator 16.0.0, SVG Export Plug-In . SVG Version: 6.00 Build 0)  -->
<!DOCTYPE svg PUBLIC "-//W3C//DTD SVG 1.1//EN" "http://www.w3.org/Graphics/SVG/1.1/DTD/svg11.dtd">
<svg version="1.1" id="Layer_1" xmlns="http://www.w3.org/2000/svg" xmlns:xlink="http://www.w3.org/1999/xlink" x="0px" y="0px"
	 width="128px" height="128px" viewBox="0 0 128 128" enable-background="new 0 0 128 128" xml:space="preserve">
<g>
	<g display="none">
		<g display="inline">
			<path fill="#2AB5E9" d="M127.465,64c0,35.052-28.417,63.465-63.465,63.465S0.535,99.052,0.535,64
				C0.535,28.952,28.952,0.535,64,0.535S127.465,28.952,127.465,64z"/>
		</g>
	</g>
	<g>
		<path fill="#FFFFFF" d="M62.931,59.565c10.133,0,18.354-8.22,18.354-18.357c0-10.133-8.221-18.35-18.354-18.35
			c-10.137,0-18.353,8.216-18.353,18.35C44.578,51.345,52.794,59.565,62.931,59.565z M88.628,66.904H37.233
			c-6.082,0-11.013,4.932-11.013,11.018v25.264h73.417V77.922C99.637,71.836,94.706,66.904,88.628,66.904z"/>
		<polyline display="none" fill="#2AB5E9" points="87.309,81.164 72.092,81.164 72.092,90.58 87.309,90.58 		"/>
	</g>
</g>
</svg>
